<svg width="300" height="300" viewBox="0 0 300 300" fill="none" xmlns="http://www.w3.org/2000/svg">
<path d="M300 150C300 232.843 232.843 300 150 300C67.1573 300 0 232.843 0 150C0 67.1573 67.1573 0 150 0C232.843 0 300 67.1573 300 150ZM34.6521 150C34.6521 213.705 86.2951 265.348 150 265.348C213.705 265.348 265.348 213.705 265.348 150C265.348 86.2951 213.705 34.6521 150 34.6521C86.2951 34.6521 34.6521 86.2951 34.6521 150Z" fill="white" fill-opacity="0.38"/>
<circle cx="149.5" cy="150.5" r="132.5" fill="white"/>
<path d="M117.198 208.834C107.427 208.834 99.4791 200.886 99.4791 191.115C99.4791 183.313 108.083 168.729 117.198 156.406C126.312 168.729 134.917 183.313 134.917 191.115C134.917 193.442 134.458 195.746 133.568 197.895C132.677 200.045 131.372 201.998 129.727 203.644C128.082 205.289 126.128 206.594 123.979 207.485C121.829 208.375 119.525 208.834 117.198 208.834ZM149.5 77.5835C139.924 77.5835 130.443 79.4695 121.596 83.1339C112.749 86.7984 104.711 92.1694 97.9401 98.9403C84.2655 112.615 76.5833 131.161 76.5833 150.5C76.5833 163.261 79.8645 175.146 85.6249 185.573C86.7916 179.667 89.7812 172.886 93.427 166.323C91.9218 161.184 91.1606 155.855 91.1666 150.5C91.1666 135.029 97.3124 120.192 108.252 109.252C119.192 98.3126 134.029 92.1668 149.5 92.1668C164.971 92.1668 179.808 98.3126 190.748 109.252C201.687 120.192 207.833 135.029 207.833 150.5C207.833 165.971 201.687 180.808 190.748 191.748C179.808 202.688 164.971 208.834 149.5 208.834C147.75 208.834 146.073 208.833 144.323 208.542C140.896 213.938 135.937 218.167 130.104 220.719C136.302 222.469 142.792 223.417 149.5 223.417C159.075 223.417 168.557 221.531 177.404 217.866C186.251 214.202 194.289 208.831 201.06 202.06C207.831 195.289 213.202 187.251 216.866 178.404C220.531 169.558 222.417 160.076 222.417 150.5C222.417 140.925 220.531 131.443 216.866 122.596C213.202 113.75 207.831 105.711 201.06 98.9403C194.289 92.1694 186.251 86.7984 177.404 83.1339C168.557 79.4695 159.075 77.5835 149.5 77.5835V77.5835ZM149.5 165.083C146.51 165.083 143.594 165.375 140.823 165.958C143.375 170.552 145.635 175.292 147.24 179.667H149.5C158.615 179.667 166.417 183.313 169.698 188.636L180.052 178.281C173.49 170.334 162.26 165.083 149.5 165.083ZM175.021 121.333C169.187 121.333 164.083 126.438 164.083 132.271C164.083 138.104 169.187 143.208 175.021 143.208C180.854 143.208 185.958 138.104 185.958 132.271C185.958 126.438 180.854 121.333 175.021 121.333ZM134.917 132.271C134.917 126.438 129.812 121.333 123.979 121.333C118.146 121.333 113.042 126.438 113.042 132.271C113.042 138.104 118.146 143.208 123.979 143.208C129.812 143.208 134.917 138.104 134.917 132.271Z" fill="#FF0019"/>
</svg>
